Phần 8 Tính chỉ số đa dạng sinh học và loài quan trọng trong ô định vị | Phân tích dữ liệu sinh thái học cơ bản với R
…
Phần 8 Tính chỉ số đa dạng sinh học và loài quan trọng trong ô định vị

8.1 Tạo dữ liệu giả lập

Tạo bảng dữ liệu giả lập kết quả khảo sát ô định vị với các cột dữ liệu gồm: TreeID, dbh_cm và species

set.seed(134)
plotdata <- tibble(TreeID = paste0("Tree",1:500),
                       dbh_cm = floor(runif(500, min=1, max=100)),
                       species = paste0("sp",floor(runif(500, min=1, max=30))))

plotdata

## # A tibble: 500 × 3
##    TreeID dbh_cm species
##    <chr>   <dbl> <chr>  
##  1 Tree1      20 sp24   
##  2 Tree2      63 sp6    
##  3 Tree3      88 sp4    
##  4 Tree4      25 sp14   
##  5 Tree5      61 sp21   
##  6 Tree6      17 sp5    
##  7 Tree7      36 sp10   
##  8 Tree8      78 sp6    
##  9 Tree9      10 sp4    
## 10 Tree10     82 sp19   
## # ℹ 490 more rows
…
